{
    "/api/*": {
       "target": "https://api.openweathermap.org/",
       "secure": true,
       "logLevel": "debug",
       "changeOrigin": true,
       "pathRewrite": {
           "^/api/": ""
       } 
      }
   }